<?xml version="1.0" encoding="UTF-8" standalone="no"?>
<!-- Created with Inkscape (http://www.inkscape.org/) -->

<svg
   xmlns:dc="http://purl.org/dc/elements/1.1/"
   xmlns:cc="http://creativecommons.org/ns#"
   xmlns:rdf="http://www.w3.org/1999/02/22-rdf-syntax-ns#"
   xmlns:svg="http://www.w3.org/2000/svg"
   xmlns="http://www.w3.org/2000/svg"
   xmlns:sodipodi="http://sodipodi.sourceforge.net/DTD/sodipodi-0.dtd"
   xmlns:inkscape="http://www.inkscape.org/namespaces/inkscape"
   width="383.08313mm"
   height="209.3988mm"
   viewBox="0 0 383.08313 209.3988"
   version="1.1"
   id="svg1668"
   inkscape:version="0.92.4 (5da689c313, 2019-01-14)"
   sodipodi:docname="neon.svg"
   inkscape:export-filename="/home/raster/workspace/1984/neon.png"
   inkscape:export-xdpi="159.13"
   inkscape:export-ydpi="159.13">
  <defs
     id="defs1662">
    <filter
       inkscape:collect="always"
       style="color-interpolation-filters:sRGB"
       id="filter2316"
       x="-0.050560457"
       width="1.1011209"
       y="-0.1250082"
       height="1.2500164">
      <feGaussianBlur
         inkscape:collect="always"
         stdDeviation="2.0732897"
         id="feGaussianBlur2318" />
    </filter>
    <filter
       inkscape:collect="always"
       style="color-interpolation-filters:sRGB"
       id="filter2403"
       x="-0.084"
       width="1.168"
       y="-0.084"
       height="1.168">
      <feGaussianBlur
         inkscape:collect="always"
         stdDeviation="2.2209423"
         id="feGaussianBlur2405" />
    </filter>
    <filter
       inkscape:collect="always"
       style="color-interpolation-filters:sRGB"
       id="filter1010"
       x="-0.052221372"
       width="1.1044427"
       y="-0.21457958"
       height="1.4291592">
      <feGaussianBlur
         inkscape:collect="always"
         stdDeviation="1.2606452"
         id="feGaussianBlur1012" />
    </filter>
  </defs>
  <sodipodi:namedview
     id="base"
     pagecolor="#ffffff"
     bordercolor="#666666"
     borderopacity="1.0"
     inkscape:pageopacity="0.0"
     inkscape:pageshadow="2"
     inkscape:zoom="0.63684252"
     inkscape:cx="687.85947"
     inkscape:cy="688.49614"
     inkscape:document-units="mm"
     inkscape:current-layer="layer1"
     showgrid="false"
     fit-margin-top="0"
     fit-margin-left="0"
     fit-margin-right="0"
     fit-margin-bottom="0"
     inkscape:window-width="1920"
     inkscape:window-height="1053"
     inkscape:window-x="0"
     inkscape:window-y="27"
     inkscape:window-maximized="1" />
  <metadata
     id="metadata1665">
    <rdf:RDF>
      <cc:Work
         rdf:about="">
        <dc:format>image/svg+xml</dc:format>
        <dc:type
           rdf:resource="http://purl.org/dc/dcmitype/StillImage" />
        <dc:title />
      </cc:Work>
    </rdf:RDF>
  </metadata>
  <g
     inkscape:label="Capa 1"
     inkscape:groupmode="layer"
     id="layer1"
     transform="translate(24.624174,-86.785065)">
    <rect
       style="fill:#000100;fill-opacity:1;stroke:none;stroke-width:1.80000007;stroke-linecap:round;stroke-linejoin:round;stroke-miterlimit:4;stroke-dasharray:none;stroke-opacity:1"
       id="rect838"
       width="383.08313"
       height="209.3988"
       x="-24.624174"
       y="86.785065" />
    <g
       id="g2332">
      <g
         style="filter:url(#filter2316)"
         id="g2243-0"
         transform="translate(-0.21019053,-4.7764164)">
        <flowRoot
           xml:space="preserve"
           id="flowRoot2228-6"
           style="font-style:normal;font-weight:normal;font-size:14.66666698px;line-height:1.25;font-family:sans-serif;letter-spacing:0px;word-spacing:0px;fill:#ffffff;fill-opacity:1;stroke:none"
           transform="matrix(0.26458333,0,0,0.26458333,-15.810912,92.954348)"><flowRegion
             id="flowRegion2230-2"
             style="fill:#ffffff;fill-opacity:1"><rect
               id="rect2232-6"
               width="435.25024"
               height="216.51479"
               x="892.70715"
               y="277.3447"
               style="fill:#ffffff;fill-opacity:1" /></flowRegion><flowPara
             id="flowPara2234-1"
             style="font-size:133.33332825px">BUD</flowPara></flowRoot>        <path
           style="fill:none;stroke:#ec0000;stroke-width:2;stroke-linecap:butt;stroke-linejoin:miter;stroke-miterlimit:4;stroke-dasharray:none;stroke-opacity:1"
           d="m 207.75217,201.00063 6.46306,-33.78417 h 27.02734 c 8.12185,-8.12185 25.60021,-7.93194 32.65082,0 h 25.81048 l 6.46306,33.78417 z"
           id="path2236-8"
           inkscape:connector-curvature="0"
           sodipodi:nodetypes="ccccccc" />
      </g>
      <g
         transform="translate(-0.21019054,-4.7764164)"
         id="g2243">
        <flowRoot
           xml:space="preserve"
           id="flowRoot2228"
           style="font-style:normal;font-weight:normal;font-size:14.66666698px;line-height:1.25;font-family:sans-serif;letter-spacing:0px;word-spacing:0px;fill:#ffffff;fill-opacity:1;stroke:none"
           transform="matrix(0.26458333,0,0,0.26458333,-15.810912,92.954348)"><flowRegion
             id="flowRegion2230"
             style="fill:#ffffff;fill-opacity:1"><rect
               id="rect2232"
               width="435.25024"
               height="216.51479"
               x="892.70715"
               y="277.3447"
               style="fill:#ffffff;fill-opacity:1" /></flowRegion><flowPara
             id="flowPara2234"
             style="font-size:133.33332825px">BUD</flowPara></flowRoot>        <path
           style="fill:none;stroke:#ec0000;stroke-width:2;stroke-linecap:butt;stroke-linejoin:miter;stroke-miterlimit:4;stroke-dasharray:none;stroke-opacity:1"
           d="m 207.75217,201.00063 6.46306,-33.78417 h 27.02734 c 8.12185,-8.12185 25.60021,-7.93194 32.65082,0 h 25.81048 l 6.46306,33.78417 z"
           id="path2236"
           inkscape:connector-curvature="0"
           sodipodi:nodetypes="ccccccc" />
      </g>
    </g>
    <circle
       style="fill:none;fill-opacity:1;stroke:#ec0000;stroke-width:3;stroke-linecap:round;stroke-linejoin:round;stroke-miterlimit:4;stroke-dasharray:none;stroke-opacity:1;filter:url(#filter2403)"
       id="path2334-5"
       cx="62.920895"
       cy="174.70775"
       r="31.727747" />
    <circle
       style="fill:none;fill-opacity:1;stroke:#ec0000;stroke-width:3;stroke-linecap:round;stroke-linejoin:round;stroke-miterlimit:4;stroke-dasharray:none;stroke-opacity:1"
       id="path2334"
       cx="62.920895"
       cy="174.70773"
       r="31.727747" />
    <g
       id="g926"
       transform="translate(-0.826245,-2.2584)">
      <path
         sodipodi:nodetypes="csc"
         inkscape:connector-curvature="0"
         id="path899"
         d="m 123.80585,172.06376 c -1.54232,2.12987 5.77004,-0.70663 8.00538,0.29377 3.3472,1.49801 1.02821,5.72862 0.36722,4.48008"
         style="fill:none;stroke:#ff0000;stroke-width:1.26499999;stroke-linecap:round;stroke-linejoin:round;stroke-miterlimit:4;stroke-dasharray:none;stroke-opacity:1" />
      <path
         sodipodi:nodetypes="cc"
         inkscape:connector-curvature="0"
         id="path901"
         d="m 126.81705,184.91643 c -1.24855,2.71742 -0.80788,-6.60995 0.36722,-11.97135"
         style="fill:none;stroke:#ff0000;stroke-width:1.26499999;stroke-linecap:round;stroke-linejoin:round;stroke-miterlimit:4;stroke-dasharray:none;stroke-opacity:1" />
      <path
         sodipodi:nodetypes="cssc"
         inkscape:connector-curvature="0"
         id="path903"
         d="m 128.94692,178.37993 c -1.1751,1.61577 2.62104,0.20233 3.74563,0.80788 0.95477,0.51411 2.30181,1.22267 1.68921,3.15809 -1.16689,3.68664 -7.41782,3.30496 -5.65517,1.6892"
         style="fill:none;stroke:#ff0000;stroke-width:1.26499999;stroke-linecap:round;stroke-linejoin:round;stroke-miterlimit:4;stroke-dasharray:none;stroke-opacity:1" />
      <path
         sodipodi:nodetypes="cssssscsc"
         inkscape:connector-curvature="0"
         id="path905"
         d="m 138.42118,179.11437 c 0,0 -1.91015,5.86483 0.14688,6.31617 4.57505,1.00382 11.24285,-13.40391 7.41783,-14.02778 -3.97301,-0.64799 -6.18651,13.22174 -1.61576,13.51367 4.47336,0.28571 9.56069,-12.22871 6.46305,-13.44022 -2.20513,-0.86244 -6.18793,11.77949 -1.98298,13.58711 2.29024,0.98453 4.62696,-5.87551 4.62696,-5.87551 0,0 -2.55454,4.76994 -0.22033,5.43485 0.7314,0.20835 1.87282,-0.91805 1.87282,-0.91805"
         style="fill:none;stroke:#ff0000;stroke-width:1.26499999;stroke-linecap:round;stroke-linejoin:round;stroke-miterlimit:4;stroke-dasharray:none;stroke-opacity:1" />
      <path
         sodipodi:nodetypes="cscscsc"
         inkscape:connector-curvature="0"
         id="path907"
         d="m 160.18998,178.81609 c -1.72593,-0.40394 -8.06786,3.14267 -3.36149,6.38771 2.84296,1.96022 4.98553,-7.27057 4.98553,-7.27057 0,0 -2.93966,6.53822 -1.71378,7.11478 1.62703,0.76523 5.30865,-4.68591 5.67587,-6.35676 3.13972,1.65249 -1.48222,4.70683 0.29639,6.20096 0.88895,0.74677 2.94125,-1.52495 2.94125,-1.52495"
         style="fill:none;stroke:#ff0000;stroke-width:1.26499999;stroke-linecap:round;stroke-linejoin:round;stroke-miterlimit:4;stroke-dasharray:none;stroke-opacity:1" />
      <path
         sodipodi:nodetypes="cscc"
         inkscape:connector-curvature="0"
         id="path909"
         d="m 174.01819,177.20618 c -0.3116,2.59663 -7.11421,3.12571 -4.41427,7.37443 1.03844,1.63413 3.47948,-1.24638 3.47948,-1.24638 l -0.0519,0.0519"
         style="fill:none;stroke:#ff0000;stroke-width:1.26499999;stroke-linecap:round;stroke-linejoin:round;stroke-miterlimit:4;stroke-dasharray:none;stroke-opacity:1" />
      <path
         sodipodi:nodetypes="cscssc"
         inkscape:connector-curvature="0"
         id="path911"
         d="m 176.61482,172.58417 c 2.64856,1.24638 -4.82002,10.5733 -3.01209,11.68485 1.55464,0.95582 4.67394,-3.1679 4.31041,-3.37563 -2.3889,3.27176 -1.64124,4.07445 -0.0519,4.41428 2.40067,0.51331 3.2993,-1.11146 3.53142,-1.64886 0.63231,-1.46393 -1.06462,-4.11566 -1.81764,-5.10238"
         style="fill:none;stroke:#ff0000;stroke-width:1.26499999;stroke-linecap:round;stroke-linejoin:round;stroke-miterlimit:4;stroke-dasharray:none;stroke-opacity:1" />
      <path
         sodipodi:nodetypes="cc"
         inkscape:connector-curvature="0"
         id="path913"
         d="m 139.00873,175.29529 -0.22034,1.02821"
         style="fill:none;stroke:#ff0000;stroke-width:1.26499999;stroke-linecap:round;stroke-linejoin:round;stroke-miterlimit:4;stroke-dasharray:none;stroke-opacity:1" />
      <path
         sodipodi:nodetypes="cc"
         inkscape:connector-curvature="0"
         id="path915"
         d="m 155.3867,175.44218 -0.66099,1.39543"
         style="fill:none;stroke:#ff0000;stroke-width:1.26499999;stroke-linecap:round;stroke-linejoin:round;stroke-miterlimit:4;stroke-dasharray:none;stroke-opacity:1" />
    </g>
    <g
       transform="translate(-0.826245,-2.2584)"
       id="g926-3"
       style="filter:url(#filter1010)">
      <path
         sodipodi:nodetypes="csc"
         inkscape:connector-curvature="0"
         id="path899-6"
         d="m 123.80585,172.06376 c -1.54232,2.12987 5.77004,-0.70663 8.00538,0.29377 3.3472,1.49801 1.02821,5.72862 0.36722,4.48008"
         style="fill:none;stroke:#ff0000;stroke-width:1.26499999;stroke-linecap:round;stroke-linejoin:round;stroke-miterlimit:4;stroke-dasharray:none;stroke-opacity:1" />
      <path
         sodipodi:nodetypes="cc"
         inkscape:connector-curvature="0"
         id="path901-7"
         d="m 126.81705,184.91643 c -1.24855,2.71742 -0.80788,-6.60995 0.36722,-11.97135"
         style="fill:none;stroke:#ff0000;stroke-width:1.26499999;stroke-linecap:round;stroke-linejoin:round;stroke-miterlimit:4;stroke-dasharray:none;stroke-opacity:1" />
      <path
         sodipodi:nodetypes="cssc"
         inkscape:connector-curvature="0"
         id="path903-5"
         d="m 128.94692,178.37993 c -1.1751,1.61577 2.62104,0.20233 3.74563,0.80788 0.95477,0.51411 2.30181,1.22267 1.68921,3.15809 -1.16689,3.68664 -7.41782,3.30496 -5.65517,1.6892"
         style="fill:none;stroke:#ff0000;stroke-width:1.26499999;stroke-linecap:round;stroke-linejoin:round;stroke-miterlimit:4;stroke-dasharray:none;stroke-opacity:1" />
      <path
         sodipodi:nodetypes="cssssscsc"
         inkscape:connector-curvature="0"
         id="path905-3"
         d="m 138.42118,179.11437 c 0,0 -1.91015,5.86483 0.14688,6.31617 4.57505,1.00382 11.24285,-13.40391 7.41783,-14.02778 -3.97301,-0.64799 -6.18651,13.22174 -1.61576,13.51367 4.47336,0.28571 9.56069,-12.22871 6.46305,-13.44022 -2.20513,-0.86244 -6.18793,11.77949 -1.98298,13.58711 2.29024,0.98453 4.62696,-5.87551 4.62696,-5.87551 0,0 -2.55454,4.76994 -0.22033,5.43485 0.7314,0.20835 1.87282,-0.91805 1.87282,-0.91805"
         style="fill:none;stroke:#ff0000;stroke-width:1.26499999;stroke-linecap:round;stroke-linejoin:round;stroke-miterlimit:4;stroke-dasharray:none;stroke-opacity:1" />
      <path
         sodipodi:nodetypes="cscscsc"
         inkscape:connector-curvature="0"
         id="path907-5"
         d="m 160.18998,178.81609 c -1.72593,-0.40394 -8.06786,3.14267 -3.36149,6.38771 2.84296,1.96022 4.98553,-7.27057 4.98553,-7.27057 0,0 -2.93966,6.53822 -1.71378,7.11478 1.62703,0.76523 5.30865,-4.68591 5.67587,-6.35676 3.13972,1.65249 -1.48222,4.70683 0.29639,6.20096 0.88895,0.74677 2.94125,-1.52495 2.94125,-1.52495"
         style="fill:none;stroke:#ff0000;stroke-width:1.26499999;stroke-linecap:round;stroke-linejoin:round;stroke-miterlimit:4;stroke-dasharray:none;stroke-opacity:1" />
      <path
         sodipodi:nodetypes="cscc"
         inkscape:connector-curvature="0"
         id="path909-6"
         d="m 174.01819,177.20618 c -0.3116,2.59663 -7.11421,3.12571 -4.41427,7.37443 1.03844,1.63413 3.47948,-1.24638 3.47948,-1.24638 l -0.0519,0.0519"
         style="fill:none;stroke:#ff0000;stroke-width:1.26499999;stroke-linecap:round;stroke-linejoin:round;stroke-miterlimit:4;stroke-dasharray:none;stroke-opacity:1" />
      <path
         sodipodi:nodetypes="cscssc"
         inkscape:connector-curvature="0"
         id="path911-2"
         d="m 176.61482,172.58417 c 2.64856,1.24638 -4.82002,10.5733 -3.01209,11.68485 1.55464,0.95582 4.67394,-3.1679 4.31041,-3.37563 -2.3889,3.27176 -1.64124,4.07445 -0.0519,4.41428 2.40067,0.51331 3.2993,-1.11146 3.53142,-1.64886 0.63231,-1.46393 -1.06462,-4.11566 -1.81764,-5.10238"
         style="fill:none;stroke:#ff0000;stroke-width:1.26499999;stroke-linecap:round;stroke-linejoin:round;stroke-miterlimit:4;stroke-dasharray:none;stroke-opacity:1" />
      <path
         sodipodi:nodetypes="cc"
         inkscape:connector-curvature="0"
         id="path913-9"
         d="m 139.00873,175.29529 -0.22034,1.02821"
         style="fill:none;stroke:#ff0000;stroke-width:1.26499999;stroke-linecap:round;stroke-linejoin:round;stroke-miterlimit:4;stroke-dasharray:none;stroke-opacity:1" />
      <path
         sodipodi:nodetypes="cc"
         inkscape:connector-curvature="0"
         id="path915-1"
         d="m 155.3867,175.44218 -0.66099,1.39543"
         style="fill:none;stroke:#ff0000;stroke-width:1.26499999;stroke-linecap:round;stroke-linejoin:round;stroke-miterlimit:4;stroke-dasharray:none;stroke-opacity:1" />
    </g>
  </g>
</svg>
